Waveform.vcd
$date
     Jun 14, 2024       01:10:07
$end

$version
 SystemC 2.3.1-Accellera --- Jun  7 2024 17:29:05
$end

$timescale
     1 ps
$end

$scope module SystemC $end
$var wire    1  aaaaa  clk       $end
$var wire    1  aaaab  rst       $end
$var wire    1  aaaac  start       $end
$var wire    3  aaaad  pattern [2:0]  $end
$var wire    4  aaaae  s_dec [3:0]  $end
$var wire    8  aaaaf  s_cnt_4 [7:0]  $end
$var wire    2  aaaag  s_cnt_4_LOWER [1:0]  $end
$var wire    1  aaaah  s_dec_0       $end
$var wire    1  aaaai  s_dec_1       $end
$var wire    1  aaaaj  s_dec_2       $end
$var wire    1  aaaak  s_dec_3       $end
$var wire    8  aaaal  s_data [7:0]  $end
$var wire    8  aaaam  s_add_out [7:0]  $end
$var wire    8  aaaan  s_add1 [7:0]  $end
$var wire    8  aaaao  s_add2 [7:0]  $end
$var wire   32  aaaap  state_num [31:0]  $end
$var wire    8  aaaaq  s_cnt_9 [7:0]  $end
$var wire    4  aaaar  s_cnt_9_LOWER [3:0]  $end
$var wire    8  aaaas  s_mux9to1 [7:0]  $end
$var wire    1  aaaat  done       $end
$var wire    1  aaaau  load_data       $end
$var wire    8  aaaav  val0 [7:0]  $end
$var wire    1  aaaaw  sel4       $end
$upscope $end
$enddefinitions  $end

$comment
All initial values are dumped below at time 0 sec = 0 timescale units.
$end

$dumpvars
0aaaaa
1aaaab
0aaaac
b1 aaaad
b0 aaaae
b0 aaaaf
b0 aaaag
0aaaah
0aaaai
0aaaaj
0aaaak
b0 aaaal
b0 aaaam
b0 aaaan
b0 aaaao
b0 aaaap
b0 aaaaq
b0 aaaar
b0 aaaas
1aaaat
0aaaau
b0 aaaav
0aaaaw
$end

#10000
1aaaaa

#15000
0aaaab

#20000
0aaaaa

#25000
1aaaac

#30000
1aaaaa
b1 aaaap
0aaaat

#40000
0aaaaa

#50000
1aaaaa

#60000
0aaaaa

#70000
1aaaaa

#80000
0aaaaa

#90000
1aaaaa

#100000
0aaaaa

#110000
1aaaaa

#120000
0aaaaa

#125000
0aaaac

#130000
1aaaaa
b10 aaaap

#140000
0aaaaa

#150000
1aaaaa
b11 aaaap

#160000
0aaaaa

#170000
1aaaaa
b100 aaaap

#180000
0aaaaa

#190000
1aaaaa
b101 aaaap

#200000
0aaaaa

#210000
1aaaaa
b1 aaaam
b1 aaaan
b110 aaaap

#220000
0aaaaa

#230000
1aaaaa
b0 aaaam
b0 aaaan
b111 aaaap
1aaaau
1aaaaw

#240000
0aaaaa

#250000
1aaaaa
b1 aaaam
b1 aaaan
b1000 aaaap
b1 aaaaq
b1 aaaar
b1 aaaas
0aaaau
0aaaaw

#260000
0aaaaa

#270000
1aaaaa
b10 aaaap

#280000
0aaaaa

#290000
1aaaaa
b0 aaaan
b1 aaaao
b11 aaaap

#300000
0aaaaa

#310000
1aaaaa
b100 aaaap

#320000
0aaaaa

#330000
1aaaaa
b101 aaaap

#340000
0aaaaa

#350000
1aaaaa
b11 aaaam
b10 aaaan
b110 aaaap

#360000
0aaaaa

#370000
1aaaaa
b0 aaaam
b0 aaaan
b0 aaaao
b111 aaaap
1aaaau
1aaaaw

#380000
0aaaaa

#390000
1aaaaa
b10 aaaam
b10 aaaan
b1000 aaaap
b10 aaaaq
b10 aaaar
b0 aaaas
0aaaau
0aaaaw

#400000
0aaaaa

#410000
1aaaaa
b10 aaaap

#420000
0aaaaa

#430000
1aaaaa
b0 aaaan
b10 aaaao
b11 aaaap

#440000
0aaaaa

#450000
1aaaaa
b100 aaaap

#460000
0aaaaa

#470000
1aaaaa
b101 aaaap

#480000
0aaaaa

#490000
1aaaaa
b110 aaaap

#500000
0aaaaa

#510000
1aaaaa
b0 aaaam
b0 aaaao
b111 aaaap
1aaaau
1aaaaw

#520000
0aaaaa

#530000
1aaaaa
b1000 aaaap
b11 aaaaq
b11 aaaar
b1 aaaas
0aaaau
0aaaaw

#540000
0aaaaa

#550000
1aaaaa
b10 aaaap

#560000
0aaaaa

#570000
1aaaaa
b100 aaaam
b100 aaaan
b11 aaaap

#580000
0aaaaa

#590000
1aaaaa
b0 aaaan
b100 aaaao
b100 aaaap

#600000
0aaaaa

#610000
1aaaaa
b101 aaaap

#620000
0aaaaa

#630000
1aaaaa
b101 aaaam
b1 aaaan
b110 aaaap

#640000
0aaaaa

#650000
1aaaaa
b0 aaaam
b0 aaaan
b0 aaaao
b111 aaaap
1aaaau
1aaaaw

#660000
0aaaaa

#670000
1aaaaa
b1 aaaam
b1 aaaan
b1000 aaaap
b100 aaaaq
b100 aaaar
0aaaau
0aaaaw

#680000
0aaaaa

#690000
1aaaaa
b10 aaaap

#700000
0aaaaa

#710000
1aaaaa
b101 aaaam
b100 aaaan
b1 aaaao
b11 aaaap

#720000
0aaaaa

#730000
1aaaaa
b0 aaaan
b101 aaaao
b100 aaaap

#740000
0aaaaa

#750000
1aaaaa
b101 aaaap

#760000
0aaaaa

#770000
1aaaaa
b111 aaaam
b10 aaaan
b110 aaaap

#780000
0aaaaa

#790000
1aaaaa
b1 aaaam
b1 aaaan
b0 aaaao
b111 aaaap
1aaaau
1aaaaw

#800000
0aaaaa

#810000
1aaaaa
b1 aaaal
b10 aaaam
b10 aaaan
b1000 aaaap
b101 aaaaq
b101 aaaar
0aaaau
0aaaaw

#820000
0aaaaa

#830000
1aaaaa
b10 aaaap

#840000
0aaaaa

#850000
1aaaaa
b110 aaaam
b100 aaaan
b10 aaaao
b11 aaaap

#860000
0aaaaa

#870000
1aaaaa
b0 aaaan
b110 aaaao
b100 aaaap

#880000
0aaaaa

#890000
1aaaaa
b101 aaaap

#900000
0aaaaa

#910000
1aaaaa
b110 aaaap

#920000
0aaaaa

#930000
1aaaaa
b1 aaaam
b1 aaaao
b111 aaaap
1aaaau
1aaaaw

#940000
0aaaaa

#950000
1aaaaa
b0 aaaam
b0 aaaao
b1000 aaaap
b110 aaaaq
b110 aaaar
b0 aaaas
0aaaau
0aaaaw

#960000
0aaaaa

#970000
1aaaaa
b10 aaaap

#980000
0aaaaa

#990000
1aaaaa
b1000 aaaam
b1000 aaaan
b11 aaaap

#1000000
0aaaaa

#1010000
1aaaaa
b0 aaaan
b1000 aaaao
b100 aaaap

#1020000
0aaaaa

#1030000
1aaaaa
b101 aaaap

#1040000
0aaaaa

#1050000
1aaaaa
b1001 aaaam
b1 aaaan
b110 aaaap

#1060000
0aaaaa

#1070000
1aaaaa
b1 aaaam
b0 aaaan
b1 aaaao
b111 aaaap
1aaaau
1aaaaw

#1080000
0aaaaa

#1090000
1aaaaa
b1 aaaan
b0 aaaao
b1000 aaaap
b111 aaaaq
b111 aaaar
b1 aaaas
0aaaau
0aaaaw

#1100000
0aaaaa

#1110000
1aaaaa
b10 aaaap

#1120000
0aaaaa

#1130000
1aaaaa
b1001 aaaam
b1000 aaaan
b1 aaaao
b11 aaaap

#1140000
0aaaaa

#1150000
1aaaaa
b0 aaaan
b1001 aaaao
b100 aaaap

#1160000
0aaaaa

#1170000
1aaaaa
b101 aaaap

#1180000
0aaaaa

#1190000
1aaaaa
b1011 aaaam
b10 aaaan
b110 aaaap

#1200000
0aaaaa

#1210000
1aaaaa
b10 aaaam
b1 aaaan
b1 aaaao
b111 aaaap
1aaaau
1aaaaw

#1220000
0aaaaa

#1230000
1aaaaa
b10 aaaal
b10 aaaan
b0 aaaao
b1000 aaaap
b1000 aaaaq
b1000 aaaar
b0 aaaas
0aaaau
0aaaaw

#1240000
0aaaaa

#1250000
1aaaaa
b10 aaaap

#1260000
0aaaaa

#1270000
1aaaaa
b1010 aaaam
b1000 aaaan
b10 aaaao
b11 aaaap

#1280000
0aaaaa

#1290000
1aaaaa
b0 aaaan
b1010 aaaao
b100 aaaap

#1300000
0aaaaa

#1310000
1aaaaa
b101 aaaap

#1320000
0aaaaa

#1330000
1aaaaa
b110 aaaap

#1340000
0aaaaa

#1350000
1aaaaa
b10 aaaam
b10 aaaao
b111 aaaap
1aaaau
1aaaaw

#1360000
0aaaaa

#1370000
1aaaaa
b0 aaaam
b0 aaaao
b1000 aaaap
b1001 aaaaq
b1001 aaaar
0aaaau
0aaaaw

#1380000
0aaaaa

#1390000
1aaaaa
b1 aaaam
b11111111 aaaan
b10 aaaao
b1001 aaaap
b0 aaaaq
b0 aaaar
1aaaau
1aaaaw

#1400000
0aaaaa

#1410000
1aaaaa
b1 aaaae
1aaaah
b1 aaaal
b0 aaaam
b0 aaaan
b0 aaaao
b1010 aaaap
0aaaaw

#1420000
0aaaaa

#1430000
1aaaaa
b0 aaaae
b1 aaaaf
b1 aaaag
0aaaah
b0 aaaal
b1011 aaaap
0aaaau
b1 aaaav

#1440000
0aaaaa

#1450000
1aaaaa
b10 aaaap

#1460000
0aaaaa

#1470000
1aaaaa
b11 aaaap

#1480000
0aaaaa

#1490000
1aaaaa
b1 aaaam
b1 aaaan
b100 aaaap

#1500000
0aaaaa

#1510000
1aaaaa
b0 aaaan
b1 aaaao
b101 aaaap

#1520000
0aaaaa

#1530000
1aaaaa
b10 aaaam
b1 aaaan
b110 aaaap

#1540000
0aaaaa

#1550000
1aaaaa
b0 aaaam
b0 aaaan
b0 aaaao
b111 aaaap
1aaaau
1aaaaw

#1560000
0aaaaa

#1570000
1aaaaa
b1 aaaam
b1 aaaan
b1000 aaaap
b1 aaaaq
b1 aaaar
b1 aaaas
0aaaau
0aaaaw

#1580000
0aaaaa

#1590000
1aaaaa
b10 aaaap

#1600000
0aaaaa

#1610000
1aaaaa
b0 aaaan
b1 aaaao
b11 aaaap

#1620000
0aaaaa

#1630000
1aaaaa
b10 aaaam
b1 aaaan
b100 aaaap

#1640000
0aaaaa

#1650000
1aaaaa
b0 aaaan
b10 aaaao
b101 aaaap

#1660000
0aaaaa

#1670000
1aaaaa
b100 aaaam
b10 aaaan
b110 aaaap

#1680000
0aaaaa

#1690000
1aaaaa
b0 aaaam
b0 aaaan
b0 aaaao
b111 aaaap
1aaaau
1aaaaw

#1700000
0aaaaa

#1710000
1aaaaa
b10 aaaam
b10 aaaan
b1000 aaaap
b10 aaaaq
b10 aaaar
b0 aaaas
0aaaau
0aaaaw

#1720000
0aaaaa

#1730000
1aaaaa
b10 aaaap

#1740000
0aaaaa

#1750000
1aaaaa
b0 aaaan
b10 aaaao
b11 aaaap

#1760000
0aaaaa

#1770000
1aaaaa
b11 aaaam
b1 aaaan
b100 aaaap

#1780000
0aaaaa

#1790000
1aaaaa
b0 aaaan
b11 aaaao
b101 aaaap

#1800000
0aaaaa

#1810000
1aaaaa
b110 aaaap

#1820000
0aaaaa

#1830000
1aaaaa
b0 aaaam
b0 aaaao
b111 aaaap
1aaaau
1aaaaw

#1840000
0aaaaa

#1850000
1aaaaa
b1000 aaaap
b11 aaaaq
b11 aaaar
b1 aaaas
0aaaau
0aaaaw

#1860000
0aaaaa

#1870000
1aaaaa
b10 aaaap

#1880000
0aaaaa

#1890000
1aaaaa
b100 aaaam
b100 aaaan
b11 aaaap

#1900000
0aaaaa

#1910000
1aaaaa
b101 aaaam
b1 aaaan
b100 aaaao
b100 aaaap

#1920000
0aaaaa

#1930000
1aaaaa
b0 aaaan
b101 aaaao
b101 aaaap

#1940000
0aaaaa

#1950000
1aaaaa
b110 aaaam
b1 aaaan
b110 aaaap

#1960000
0aaaaa

#1970000
1aaaaa
b1 aaaam
b0 aaaao
b111 aaaap
1aaaau
1aaaaw

#1980000
0aaaaa

#1990000
1aaaaa
b1 aaaal
b1000 aaaap
b100 aaaaq
b100 aaaar
0aaaau
0aaaaw

#2000000
0aaaaa

#2010000
1aaaaa
b10 aaaap

#2020000
0aaaaa

#2030000
1aaaaa
b101 aaaam
b100 aaaan
b1 aaaao
b11 aaaap

#2040000
0aaaaa

#2050000
1aaaaa
b110 aaaam
b1 aaaan
b101 aaaao
b100 aaaap

#2060000
0aaaaa

#2070000
1aaaaa
b0 aaaan
b110 aaaao
b101 aaaap

#2080000
0aaaaa

#2090000
1aaaaa
b1000 aaaam
b10 aaaan
b110 aaaap

#2100000
0aaaaa

#2110000
1aaaaa
b1 aaaam
b0 aaaan
b1 aaaao
b111 aaaap
1aaaau
1aaaaw

#2120000
0aaaaa

#2130000
1aaaaa
b10 aaaam
b10 aaaan
b0 aaaao
b1000 aaaap
b101 aaaaq
b101 aaaar
0aaaau
0aaaaw

#2140000
0aaaaa

#2150000
1aaaaa
b10 aaaap

#2160000
0aaaaa

#2170000
1aaaaa
b110 aaaam
b100 aaaan
b10 aaaao
b11 aaaap

#2180000
0aaaaa

#2190000
1aaaaa
b111 aaaam
b1 aaaan
b110 aaaao
b100 aaaap

#2200000
0aaaaa

#2210000
1aaaaa
b0 aaaan
b111 aaaao
b101 aaaap

#2220000
0aaaaa

#2230000
1aaaaa
b110 aaaap

#2240000
0aaaaa

#2250000
1aaaaa
b1 aaaam
b1 aaaao
b111 aaaap
1aaaau
1aaaaw

#2260000
0aaaaa

#2270000
1aaaaa
b0 aaaam
b0 aaaao
b1000 aaaap
b110 aaaaq
b110 aaaar
b0 aaaas
0aaaau
0aaaaw

#2280000
0aaaaa

#2290000
1aaaaa
b10 aaaap

#2300000
0aaaaa

#2310000
1aaaaa
b1000 aaaam
b1000 aaaan
b11 aaaap

#2320000
0aaaaa

#2330000
1aaaaa
b1001 aaaam
b1 aaaan
b1000 aaaao
b100 aaaap

#2340000
0aaaaa

#2350000
1aaaaa
b0 aaaan
b1001 aaaao
b101 aaaap

#2360000
0aaaaa

#2370000
1aaaaa
b1010 aaaam
b1 aaaan
b110 aaaap

#2380000
0aaaaa

#2390000
1aaaaa
b1 aaaam
b0 aaaan
b1 aaaao
b111 aaaap
1aaaau
1aaaaw

#2400000
0aaaaa

#2410000
1aaaaa
b1 aaaan
b0 aaaao
b1000 aaaap
b111 aaaaq
b111 aaaar
b1 aaaas
0aaaau
0aaaaw

#2420000
0aaaaa

#2430000
1aaaaa
b10 aaaap

#2440000
0aaaaa

#2450000
1aaaaa
b1001 aaaam
b1000 aaaan
b1 aaaao
b11 aaaap

#2460000
0aaaaa

#2470000
1aaaaa
b1010 aaaam
b1 aaaan
b1001 aaaao
b100 aaaap

#2480000
0aaaaa

#2490000
1aaaaa
b0 aaaan
b1010 aaaao
b101 aaaap

#2500000
0aaaaa

#2510000
1aaaaa
b1100 aaaam
b10 aaaan
b110 aaaap

#2520000
0aaaaa

#2530000
1aaaaa
b10 aaaam
b1 aaaan
b1 aaaao
b111 aaaap
1aaaau
1aaaaw

#2540000
0aaaaa

#2550000
1aaaaa
b10 aaaal
b10 aaaan
b0 aaaao
b1000 aaaap
b1000 aaaaq
b1000 aaaar
b0 aaaas
0aaaau
0aaaaw

#2560000
0aaaaa

#2570000
1aaaaa
b10 aaaap

#2580000
0aaaaa

#2590000
1aaaaa
b1010 aaaam
b1000 aaaan
b10 aaaao
b11 aaaap

#2600000
0aaaaa

#2610000
1aaaaa
b1011 aaaam
b1 aaaan
b1010 aaaao
b100 aaaap

#2620000
0aaaaa

#2630000
1aaaaa
b0 aaaan
b1011 aaaao
b101 aaaap

#2640000
0aaaaa

#2650000
1aaaaa
b110 aaaap

#2660000
0aaaaa

#2670000
1aaaaa
b10 aaaam
b10 aaaao
b111 aaaap
1aaaau
1aaaaw

#2680000
0aaaaa

#2690000
1aaaaa
b0 aaaam
b0 aaaao
b1000 aaaap
b1001 aaaaq
b1001 aaaar
0aaaau
0aaaaw

#2700000
0aaaaa

#2710000
1aaaaa
b1 aaaam
b11111111 aaaan
b10 aaaao
b1001 aaaap
b0 aaaaq
b0 aaaar
1aaaau
1aaaaw

#2720000
0aaaaa

#2730000
1aaaaa
b10 aaaae
1aaaai
b1 aaaal
b0 aaaam
b0 aaaan
b0 aaaao
b1010 aaaap
0aaaaw

#2740000
0aaaaa

#2750000
1aaaaa
b0 aaaae
b10 aaaaf
b10 aaaag
0aaaai
b0 aaaal
b1011 aaaap
0aaaau

#2760000
0aaaaa

#2770000
1aaaaa
b10 aaaap

#2780000
0aaaaa

#2790000
1aaaaa
b11 aaaap

#2800000
0aaaaa

#2810000
1aaaaa
b100 aaaap

#2820000
0aaaaa

#2830000
1aaaaa
b100 aaaam
b100 aaaan
b101 aaaap

#2840000
0aaaaa

#2850000
1aaaaa
b101 aaaam
b1 aaaan
b100 aaaao
b110 aaaap

#2860000
0aaaaa

#2870000
1aaaaa
b0 aaaam
b0 aaaan
b0 aaaao
b111 aaaap
1aaaau
1aaaaw

#2880000
0aaaaa

#2890000
1aaaaa
b1 aaaam
b1 aaaan
b1000 aaaap
b1 aaaaq
b1 aaaar
b1 aaaas
0aaaau
0aaaaw

#2900000
0aaaaa

#2910000
1aaaaa
b10 aaaap

#2920000
0aaaaa

#2930000
1aaaaa
b0 aaaan
b1 aaaao
b11 aaaap

#2940000
0aaaaa

#2950000
1aaaaa
b100 aaaap

#2960000
0aaaaa

#2970000
1aaaaa
b101 aaaam
b100 aaaan
b101 aaaap

#2980000
0aaaaa

#2990000
1aaaaa
b111 aaaam
b10 aaaan
b101 aaaao
b110 aaaap

#3000000
0aaaaa

#3010000
1aaaaa
b1 aaaam
b1 aaaan
b0 aaaao
b111 aaaap
1aaaau
1aaaaw

#3020000
0aaaaa

#3030000
1aaaaa
b1 aaaal
b10 aaaam
b10 aaaan
b1000 aaaap
b10 aaaaq
b10 aaaar
b0 aaaas
0aaaau
0aaaaw

#3040000
0aaaaa

#3050000
1aaaaa
b10 aaaap

#3060000
0aaaaa

#3070000
1aaaaa
b0 aaaan
b10 aaaao
b11 aaaap

#3080000
0aaaaa

#3090000
1aaaaa
b100 aaaap

#3100000
0aaaaa

#3110000
1aaaaa
b110 aaaam
b100 aaaan
b101 aaaap

#3120000
0aaaaa

#3130000
1aaaaa
b0 aaaan
b110 aaaao
b110 aaaap

#3140000
0aaaaa

#3150000
1aaaaa
b1 aaaam
b1 aaaao
b111 aaaap
1aaaau
1aaaaw

#3160000
0aaaaa

#3170000
1aaaaa
b0 aaaam
b0 aaaao
b1000 aaaap
b11 aaaaq
b11 aaaar
b1 aaaas
0aaaau
0aaaaw

#3180000
0aaaaa

#3190000
1aaaaa
b10 aaaap

#3200000
0aaaaa

#3210000
1aaaaa
b100 aaaam
b100 aaaan
b11 aaaap

#3220000
0aaaaa

#3230000
1aaaaa
b0 aaaan
b100 aaaao
b100 aaaap

#3240000
0aaaaa

#3250000
1aaaaa
b1000 aaaam
b100 aaaan
b101 aaaap

#3260000
0aaaaa

#3270000
1aaaaa
b1001 aaaam
b1 aaaan
b1000 aaaao
b110 aaaap

#3280000
0aaaaa

#3290000
1aaaaa
b10 aaaam
b1 aaaao
b111 aaaap
1aaaau
1aaaaw

#3300000
0aaaaa

#3310000
1aaaaa
b10 aaaal
b1 aaaam
b0 aaaao
b1000 aaaap
b100 aaaaq
b100 aaaar
0aaaau
0aaaaw

#3320000
0aaaaa

#3330000
1aaaaa
b10 aaaap

#3340000
0aaaaa

#3350000
1aaaaa
b101 aaaam
b100 aaaan
b1 aaaao
b11 aaaap

#3360000
0aaaaa

#3370000
1aaaaa
b0 aaaan
b101 aaaao
b100 aaaap

#3380000
0aaaaa

#3390000
1aaaaa
b1001 aaaam
b100 aaaan
b101 aaaap

#3400000
0aaaaa

#3410000
1aaaaa
b1011 aaaam
b10 aaaan
b1001 aaaao
b110 aaaap

#3420000
0aaaaa

#3430000
1aaaaa
b11 aaaam
b1 aaaan
b10 aaaao
b111 aaaap
1aaaau
1aaaaw

#3440000
0aaaaa

#3450000
1aaaaa
b11 aaaal
b10 aaaam
b10 aaaan
b0 aaaao
b1000 aaaap
b101 aaaaq
b101 aaaar
0aaaau
0aaaaw

#3460000
0aaaaa

#3470000
1aaaaa
b10 aaaap

#3480000
0aaaaa

#3490000
1aaaaa
b110 aaaam
b100 aaaan
b10 aaaao
b11 aaaap

#3500000
0aaaaa

#3510000
1aaaaa
b0 aaaan
b110 aaaao
b100 aaaap

#3520000
0aaaaa

#3530000
1aaaaa
b1010 aaaam
b100 aaaan
b101 aaaap

#3540000
0aaaaa

#3550000
1aaaaa
b0 aaaan
b1010 aaaao
b110 aaaap

#3560000
0aaaaa

#3570000
1aaaaa
b100 aaaam
b1 aaaan
b11 aaaao
b111 aaaap
1aaaau
1aaaaw

#3580000
0aaaaa

#3590000
1aaaaa
b100 aaaal
b0 aaaam
b0 aaaan
b0 aaaao
b1000 aaaap
b110 aaaaq
b110 aaaar
b0 aaaas
0aaaau
0aaaaw

#3600000
0aaaaa

#3610000
1aaaaa
b10 aaaap

#3620000
0aaaaa

#3630000
1aaaaa
b1000 aaaam
b1000 aaaan
b11 aaaap

#3640000
0aaaaa

#3650000
1aaaaa
b0 aaaan
b1000 aaaao
b100 aaaap

#3660000
0aaaaa

#3670000
1aaaaa
b1100 aaaam
b100 aaaan
b101 aaaap

#3680000
0aaaaa

#3690000
1aaaaa
b1101 aaaam
b1 aaaan
b1100 aaaao
b110 aaaap

#3700000
0aaaaa

#3710000
1aaaaa
b100 aaaam
b0 aaaan
b100 aaaao
b111 aaaap
1aaaau
1aaaaw

#3720000
0aaaaa

#3730000
1aaaaa
b1 aaaam
b1 aaaan
b0 aaaao
b1000 aaaap
b111 aaaaq
b111 aaaar
b1 aaaas
0aaaau
0aaaaw

#3740000
0aaaaa

#3750000
1aaaaa
b10 aaaap

#3760000
0aaaaa

#3770000
1aaaaa
b1001 aaaam
b1000 aaaan
b1 aaaao
b11 aaaap

#3780000
0aaaaa

#3790000
1aaaaa
b0 aaaan
b1001 aaaao
b100 aaaap

#3800000
0aaaaa

#3810000
1aaaaa
b1101 aaaam
b100 aaaan
b101 aaaap

#3820000
0aaaaa

#3830000
1aaaaa
b1111 aaaam
b10 aaaan
b1101 aaaao
b110 aaaap

#3840000
0aaaaa

#3850000
1aaaaa
b101 aaaam
b1 aaaan
b100 aaaao
b111 aaaap
1aaaau
1aaaaw

#3860000
0aaaaa

#3870000
1aaaaa
b101 aaaal
b10 aaaam
b10 aaaan
b0 aaaao
b1000 aaaap
b1000 aaaaq
b1000 aaaar
b0 aaaas
0aaaau
0aaaaw

#3880000
0aaaaa

#3890000
1aaaaa
b10 aaaap

#3900000
0aaaaa

#3910000
1aaaaa
b1010 aaaam
b1000 aaaan
b10 aaaao
b11 aaaap

#3920000
0aaaaa

#3930000
1aaaaa
b0 aaaan
b1010 aaaao
b100 aaaap

#3940000
0aaaaa

#3950000
1aaaaa
b1110 aaaam
b100 aaaan
b101 aaaap

#3960000
0aaaaa

#3970000
1aaaaa
b0 aaaan
b1110 aaaao
b110 aaaap

#3980000
0aaaaa

#3990000
1aaaaa
b101 aaaam
b101 aaaao
b111 aaaap
1aaaau
1aaaaw

#4000000
0aaaaa

#4010000
1aaaaa
b0 aaaam
b0 aaaao
b1000 aaaap
b1001 aaaaq
b1001 aaaar
0aaaau
0aaaaw

#4020000
0aaaaa

#4030000
1aaaaa
b100 aaaam
b11111111 aaaan
b101 aaaao
b1001 aaaap
b0 aaaaq
b0 aaaar
1aaaau
1aaaaw

#4040000
0aaaaa

#4050000
1aaaaa
b100 aaaae
1aaaaj
b100 aaaal
b0 aaaam
b0 aaaan
b0 aaaao
b1010 aaaap
0aaaaw

#4060000
0aaaaa

#4070000
1aaaaa
b0 aaaae
b11 aaaaf
b11 aaaag
0aaaaj
b0 aaaal
b1011 aaaap
0aaaau

#4080000
0aaaaa

#4090000
1aaaaa
b10 aaaap

#4100000
0aaaaa

#4110000
1aaaaa
b11 aaaap

#4120000
0aaaaa

#4130000
1aaaaa
b1 aaaam
b1 aaaan
b100 aaaap

#4140000
0aaaaa

#4150000
1aaaaa
b101 aaaam
b100 aaaan
b1 aaaao
b101 aaaap

#4160000
0aaaaa

#4170000
1aaaaa
b110 aaaam
b1 aaaan
b101 aaaao
b110 aaaap

#4180000
0aaaaa

#4190000
1aaaaa
b0 aaaam
b0 aaaan
b0 aaaao
b111 aaaap
1aaaau
1aaaaw

#4200000
0aaaaa

#4210000
1aaaaa
b1 aaaam
b1 aaaan
b1000 aaaap
b1 aaaaq
b1 aaaar
b1 aaaas
0aaaau
0aaaaw

#4220000
0aaaaa

#4230000
1aaaaa
b10 aaaap

#4240000
0aaaaa

#4250000
1aaaaa
b0 aaaan
b1 aaaao
b11 aaaap

#4260000
0aaaaa

#4270000
1aaaaa
b10 aaaam
b1 aaaan
b100 aaaap

#4280000
0aaaaa

#4290000
1aaaaa
b110 aaaam
b100 aaaan
b10 aaaao
b101 aaaap

#4300000
0aaaaa

#4310000
1aaaaa
b1000 aaaam
b10 aaaan
b110 aaaao
b110 aaaap

#4320000
0aaaaa

#4330000
1aaaaa
b0 aaaam
b0 aaaan
b0 aaaao
b111 aaaap
1aaaau
1aaaaw

#4340000
0aaaaa

#4350000
1aaaaa
b10 aaaam
b10 aaaan
b1000 aaaap
b10 aaaaq
b10 aaaar
b0 aaaas
0aaaau
0aaaaw

#4360000
0aaaaa

#4370000
1aaaaa
b10 aaaap

#4380000
0aaaaa

#4390000
1aaaaa
b0 aaaan
b10 aaaao
b11 aaaap

#4400000
0aaaaa

#4410000
1aaaaa
b11 aaaam
b1 aaaan
b100 aaaap

#4420000
0aaaaa

#4430000
1aaaaa
b111 aaaam
b100 aaaan
b11 aaaao
b101 aaaap

#4440000
0aaaaa

#4450000
1aaaaa
b0 aaaan
b111 aaaao
b110 aaaap

#4460000
0aaaaa

#4470000
1aaaaa
b0 aaaam
b0 aaaao
b111 aaaap
1aaaau
1aaaaw

#4480000
0aaaaa

#4490000
1aaaaa
b1000 aaaap
b11 aaaaq
b11 aaaar
b1 aaaas
0aaaau
0aaaaw

#4500000
0aaaaa

#4510000
1aaaaa
b10 aaaap

#4520000
0aaaaa

#4530000
1aaaaa
b100 aaaam
b100 aaaan
b11 aaaap

#4540000
0aaaaa

#4550000
1aaaaa
b101 aaaam
b1 aaaan
b100 aaaao
b100 aaaap

#4560000
0aaaaa

#4570000
1aaaaa
b1001 aaaam
b100 aaaan
b101 aaaao
b101 aaaap

#4580000
0aaaaa

#4590000
1aaaaa
b1010 aaaam
b1 aaaan
b1001 aaaao
b110 aaaap

#4600000
0aaaaa

#4610000
1aaaaa
b1 aaaam
b0 aaaao
b111 aaaap
1aaaau
1aaaaw

#4620000
0aaaaa

#4630000
1aaaaa
b1 aaaal
b1000 aaaap
b100 aaaaq
b100 aaaar
0aaaau
0aaaaw

#4640000
0aaaaa

#4650000
1aaaaa
b10 aaaap

#4660000
0aaaaa

#4670000
1aaaaa
b101 aaaam
b100 aaaan
b1 aaaao
b11 aaaap

#4680000
0aaaaa

#4690000
1aaaaa
b110 aaaam
b1 aaaan
b101 aaaao
b100 aaaap

#4700000
0aaaaa

#4710000
1aaaaa
b1010 aaaam
b100 aaaan
b110 aaaao
b101 aaaap

#4720000
0aaaaa

#4730000
1aaaaa
b1100 aaaam
b10 aaaan
b1010 aaaao
b110 aaaap

#4740000
0aaaaa

#4750000
1aaaaa
b10 aaaam
b1 aaaan
b1 aaaao
b111 aaaap
1aaaau
1aaaaw

#4760000
0aaaaa

#4770000
1aaaaa
b10 aaaal
b10 aaaan
b0 aaaao
b1000 aaaap
b101 aaaaq
b101 aaaar
0aaaau
0aaaaw

#4780000
0aaaaa

#4790000
1aaaaa
b10 aaaap

#4800000
0aaaaa

#4810000
1aaaaa
b110 aaaam
b100 aaaan
b10 aaaao
b11 aaaap

#4820000
0aaaaa

#4830000
1aaaaa
b111 aaaam
b1 aaaan
b110 aaaao
b100 aaaap

#4840000
0aaaaa

#4850000
1aaaaa
b1011 aaaam
b100 aaaan
b111 aaaao
b101 aaaap

#4860000
0aaaaa

#4870000
1aaaaa
b0 aaaan
b1011 aaaao
b110 aaaap

#4880000
0aaaaa

#4890000
1aaaaa
b11 aaaam
b1 aaaan
b10 aaaao
b111 aaaap
1aaaau
1aaaaw

#4900000
0aaaaa

#4910000
1aaaaa
b11 aaaal
b0 aaaam
b0 aaaan
b0 aaaao
b1000 aaaap
b110 aaaaq
b110 aaaar
b0 aaaas
0aaaau
0aaaaw

#4920000
0aaaaa

#4930000
1aaaaa
b10 aaaap

#4940000
0aaaaa

#4950000
1aaaaa
b1000 aaaam
b1000 aaaan
b11 aaaap

#4960000
0aaaaa

#4970000
1aaaaa
b1001 aaaam
b1 aaaan
b1000 aaaao
b100 aaaap

#4980000
0aaaaa

#4990000
1aaaaa
b1101 aaaam
b100 aaaan
b1001 aaaao
b101 aaaap

#5000000
0aaaaa

#5010000
1aaaaa
b1110 aaaam
b1 aaaan
b1101 aaaao
b110 aaaap

#5020000
0aaaaa

#5030000
1aaaaa
b11 aaaam
b0 aaaan
b11 aaaao
b111 aaaap
1aaaau
1aaaaw

#5040000
0aaaaa

#5050000
1aaaaa
b1 aaaam
b1 aaaan
b0 aaaao
b1000 aaaap
b111 aaaaq
b111 aaaar
b1 aaaas
0aaaau
0aaaaw

#5060000
0aaaaa

#5070000
1aaaaa
b10 aaaap

#5080000
0aaaaa

#5090000
1aaaaa
b1001 aaaam
b1000 aaaan
b1 aaaao
b11 aaaap

#5100000
0aaaaa

#5110000
1aaaaa
b1010 aaaam
b1 aaaan
b1001 aaaao
b100 aaaap

#5120000
0aaaaa

#5130000
1aaaaa
b1110 aaaam
b100 aaaan
b1010 aaaao
b101 aaaap

#5140000
0aaaaa

#5150000
1aaaaa
b10000 aaaam
b10 aaaan
b1110 aaaao
b110 aaaap

#5160000
0aaaaa

#5170000
1aaaaa
b11 aaaam
b0 aaaan
b11 aaaao
b111 aaaap
1aaaau
1aaaaw

#5180000
0aaaaa

#5190000
1aaaaa
b10 aaaam
b10 aaaan
b0 aaaao
b1000 aaaap
b1000 aaaaq
b1000 aaaar
b0 aaaas
0aaaau
0aaaaw

#5200000
0aaaaa

