Waveform.vcd
$date
     Jun 14, 2024       02:27:35
$end

$version
 SystemC 2.3.1-Accellera --- Jun  7 2024 17:29:05
$end

$timescale
     1 ps
$end

$scope module SystemC $end
$var wire    1  aaaaa  clk       $end
$var wire    1  aaaab  rst       $end
$var wire    1  aaaac  start       $end
$var wire    3  aaaad  pattern [2:0]  $end
$var wire    4  aaaae  s_dec [3:0]  $end
$var wire    8  aaaaf  s_cnt_4 [7:0]  $end
$var wire    2  aaaag  s_cnt_4_LOWER [1:0]  $end
$var wire    1  aaaah  s_dec_0       $end
$var wire    1  aaaai  s_dec_1       $end
$var wire    1  aaaaj  s_dec_2       $end
$var wire    1  aaaak  s_dec_3       $end
$var wire    8  aaaal  s_data [7:0]  $end
$var wire    8  aaaam  s_add_out [7:0]  $end
$var wire    8  aaaan  s_add1 [7:0]  $end
$var wire    8  aaaao  s_add2 [7:0]  $end
$var wire   32  aaaap  state_num [31:0]  $end
$var wire    8  aaaaq  s_mul1 [7:0]  $end
$var wire    8  aaaar  s_mul2 [7:0]  $end
$var wire    8  aaaas  s_add1 [7:0]  $end
$var wire    8  aaaat  s_add2 [7:0]  $end
$var wire    1  aaaau  done       $end
$var wire    8  aaaav  relu1_val3 [7:0]  $end
$var wire    8  aaaaw  relu1_val2 [7:0]  $end
$var wire    8  aaaax  relu1_val1 [7:0]  $end
$var wire    8  aaaay  relu1_val0 [7:0]  $end
$var wire    8  aaaaz  relu1_in3 [7:0]  $end
$var wire    8  aaaba  relu1_in2 [7:0]  $end
$var wire    8  aaabb  relu1_in1 [7:0]  $end
$var wire    8  aaabc  relu1_in0 [7:0]  $end
$var wire    1  aaabd  load_data       $end
$var wire    8  aaabe  val3 [7:0]  $end
$var wire    8  aaabf  val2 [7:0]  $end
$var wire    8  aaabg  val1 [7:0]  $end
$var wire    8  aaabh  val0 [7:0]  $end
$var wire    2  aaabi  sel1 [1:0]  $end
$var wire    1  aaabj  sel4       $end
$var wire    1  aaabk  sel3       $end
$upscope $end
$enddefinitions  $end

$comment
All initial values are dumped below at time 0 sec = 0 timescale units.
$end

$dumpvars
0aaaaa
1aaaab
0aaaac
b1 aaaad
b0 aaaae
b0 aaaaf
b0 aaaag
0aaaah
0aaaai
0aaaaj
0aaaak
b0 aaaal
b0 aaaam
b0 aaaan
b0 aaaao
b0 aaaap
b0 aaaaq
b100 aaaar
b0 aaaas
b0 aaaat
1aaaau
b0 aaaav
b0 aaaaw
b0 aaaax
b0 aaaay
b0 aaaaz
b0 aaaba
b0 aaabb
b0 aaabc
0aaabd
b0 aaabe
b0 aaabf
b0 aaabg
b0 aaabh
b0 aaabi
0aaabj
0aaabk
$end

#10000
1aaaaa

#15000
0aaaab

#20000
0aaaaa

#25000
1aaaac

#30000
1aaaaa
b1 aaaap
0aaaau

#40000
0aaaaa

#50000
1aaaaa

#60000
0aaaaa

#70000
1aaaaa

#80000
0aaaaa

#90000
1aaaaa

#100000
0aaaaa

#110000
1aaaaa

#120000
0aaaaa

#125000
0aaaac

#130000
1aaaaa
b10 aaaap

#140000
0aaaaa

#150000
1aaaaa
b11 aaaap
b10 aaabi

#160000
0aaaaa

#170000
1aaaaa
b100 aaaap
b1 aaabi

#180000
0aaaaa

#190000
1aaaaa
b101 aaaap
b10 aaabi

#200000
0aaaaa

#210000
1aaaaa
b1 aaaam
b1 aaaan
b110 aaaap
b1 aaaas
b0 aaabi

#220000
0aaaaa

#230000
1aaaaa
b0 aaaam
b0 aaaan
b111 aaaap
b0 aaaar
b0 aaaas
1aaabd
b10 aaabi
1aaabj
1aaabk

#240000
0aaaaa

#250000
1aaaaa
b1 aaaam
b1 aaaan
b1000 aaaap
b100 aaaar
b1 aaaas
0aaabd
b0 aaabi
0aaabj
0aaabk

#260000
0aaaaa

#270000
1aaaaa
b10 aaaap

#280000
0aaaaa

#290000
1aaaaa
b0 aaaan
b1 aaaao
b11 aaaap
b0 aaaas
b1 aaaat
b10 aaabi

#300000
0aaaaa

#310000
1aaaaa
b100 aaaap
b1 aaabi

#320000
0aaaaa

#330000
1aaaaa
b101 aaaap
b10 aaabi

#340000
0aaaaa

#350000
1aaaaa
b11 aaaam
b10 aaaan
b110 aaaap
b10 aaaas
b0 aaabi

#360000
0aaaaa

#370000
1aaaaa
b0 aaaam
b0 aaaan
b0 aaaao
b111 aaaap
b1 aaaar
b0 aaaas
b0 aaaat
1aaabd
b10 aaabi
1aaabj
1aaabk

#380000
0aaaaa

#390000
1aaaaa
b10 aaaam
b10 aaaan
b1000 aaaap
b100 aaaar
b10 aaaas
0aaabd
b0 aaabi
0aaabj
0aaabk

#400000
0aaaaa

#410000
1aaaaa
b10 aaaap

#420000
0aaaaa

#430000
1aaaaa
b0 aaaan
b10 aaaao
b11 aaaap
b0 aaaas
b10 aaaat
b10 aaabi

#440000
0aaaaa

#450000
1aaaaa
b100 aaaap
b1 aaaaq
b1 aaabi

#460000
0aaaaa

#470000
1aaaaa
b101 aaaap
b0 aaaaq
b10 aaabi

#480000
0aaaaa

#490000
1aaaaa
b110 aaaap
b1 aaaaq
b0 aaabi

#500000
0aaaaa

#510000
1aaaaa
b0 aaaam
b0 aaaao
b111 aaaap
b0 aaaaq
b0 aaaar
b0 aaaat
1aaabd
b10 aaabi
1aaabj
1aaabk

#520000
0aaaaa

#530000
1aaaaa
b1000 aaaap
b1 aaaaq
b100 aaaar
0aaabd
b0 aaabi
0aaabj
0aaabk

#540000
0aaaaa

#550000
1aaaaa
b10 aaaap

#560000
0aaaaa

#570000
1aaaaa
b100 aaaam
b100 aaaan
b11 aaaap
b100 aaaas
b10 aaabi

#580000
0aaaaa

#590000
1aaaaa
b0 aaaan
b100 aaaao
b100 aaaap
b0 aaaas
b100 aaaat
b1 aaabi

#600000
0aaaaa

#610000
1aaaaa
b101 aaaap
b0 aaaaq
b10 aaabi

#620000
0aaaaa

#630000
1aaaaa
b101 aaaam
b1 aaaan
b110 aaaap
b1 aaaaq
b1 aaaas
b0 aaabi

#640000
0aaaaa

#650000
1aaaaa
b0 aaaam
b0 aaaan
b0 aaaao
b111 aaaap
b0 aaaaq
b1 aaaar
b0 aaaas
b0 aaaat
1aaabd
b10 aaabi
1aaabj
1aaabk

#660000
0aaaaa

#670000
1aaaaa
b1 aaaam
b1 aaaan
b1000 aaaap
b1 aaaaq
b100 aaaar
b1 aaaas
0aaabd
b0 aaabi
0aaabj
0aaabk

#680000
0aaaaa

#690000
1aaaaa
b10 aaaap

#700000
0aaaaa

#710000
1aaaaa
b101 aaaam
b100 aaaan
b1 aaaao
b11 aaaap
b100 aaaas
b1 aaaat
b10 aaabi

#720000
0aaaaa

#730000
1aaaaa
b0 aaaan
b101 aaaao
b100 aaaap
b0 aaaas
b101 aaaat
b1 aaabi

#740000
0aaaaa

#750000
1aaaaa
b101 aaaap
b0 aaaaq
b10 aaabi

#760000
0aaaaa

#770000
1aaaaa
b111 aaaam
b10 aaaan
b110 aaaap
b1 aaaaq
b10 aaaas
b0 aaabi

#780000
0aaaaa

#790000
1aaaaa
b1 aaaam
b1 aaaan
b0 aaaao
b111 aaaap
b1 aaaar
b1 aaaas
b0 aaaat
1aaabd
b10 aaabi
1aaabj
1aaabk

#800000
0aaaaa

#810000
1aaaaa
b1 aaaal
b10 aaaam
b10 aaaan
b1000 aaaap
b100 aaaar
b10 aaaas
0aaabd
b0 aaabi
0aaabj
0aaabk

#820000
0aaaaa

#830000
1aaaaa
b10 aaaap

#840000
0aaaaa

#850000
1aaaaa
b110 aaaam
b100 aaaan
b10 aaaao
b11 aaaap
b100 aaaas
b10 aaaat
b10 aaabi

#860000
0aaaaa

#870000
1aaaaa
b0 aaaan
b110 aaaao
b100 aaaap
b10 aaaaq
b0 aaaas
b110 aaaat
b1 aaabi

#880000
0aaaaa

#890000
1aaaaa
b101 aaaap
b0 aaaaq
b10 aaabi

#900000
0aaaaa

#910000
1aaaaa
b110 aaaap
b10 aaaaq
b0 aaabi

#920000
0aaaaa

#930000
1aaaaa
b1 aaaam
b1 aaaao
b111 aaaap
b0 aaaaq
b1 aaaar
b1 aaaat
1aaabd
b10 aaabi
1aaabj
1aaabk

#940000
0aaaaa

#950000
1aaaaa
b0 aaaam
b0 aaaao
b1000 aaaap
b10 aaaaq
b100 aaaar
b0 aaaat
0aaabd
b0 aaabi
0aaabj
0aaabk

#960000
0aaaaa

#970000
1aaaaa
b10 aaaap

#980000
0aaaaa

#990000
1aaaaa
b1000 aaaam
b1000 aaaan
b11 aaaap
b1000 aaaas
b10 aaabi

#1000000
0aaaaa

#1010000
1aaaaa
b0 aaaan
b1000 aaaao
b100 aaaap
b0 aaaas
b1000 aaaat
b1 aaabi

#1020000
0aaaaa

#1030000
1aaaaa
b101 aaaap
b0 aaaaq
b10 aaabi

#1040000
0aaaaa

#1050000
1aaaaa
b1001 aaaam
b1 aaaan
b110 aaaap
b10 aaaaq
b1 aaaas
b0 aaabi

#1060000
0aaaaa

#1070000
1aaaaa
b1 aaaam
b0 aaaan
b1 aaaao
b111 aaaap
b1 aaaaq
b0 aaaar
b0 aaaas
b1 aaaat
1aaabd
b10 aaabi
1aaabj
1aaabk

#1080000
0aaaaa

#1090000
1aaaaa
b1 aaaan
b0 aaaao
b1000 aaaap
b10 aaaaq
b100 aaaar
b1 aaaas
b0 aaaat
0aaabd
b0 aaabi
0aaabj
0aaabk

#1100000
0aaaaa

#1110000
1aaaaa
b10 aaaap

#1120000
0aaaaa

#1130000
1aaaaa
b1001 aaaam
b1000 aaaan
b1 aaaao
b11 aaaap
b1000 aaaas
b1 aaaat
b10 aaabi

#1140000
0aaaaa

#1150000
1aaaaa
b0 aaaan
b1001 aaaao
b100 aaaap
b0 aaaas
b1001 aaaat
b1 aaabi

#1160000
0aaaaa

#1170000
1aaaaa
b101 aaaap
b0 aaaaq
b10 aaabi

#1180000
0aaaaa

#1190000
1aaaaa
b1011 aaaam
b10 aaaan
b110 aaaap
b10 aaaaq
b10 aaaas
b0 aaabi

#1200000
0aaaaa

#1210000
1aaaaa
b10 aaaam
b1 aaaan
b1 aaaao
b111 aaaap
b1 aaaaq
b1 aaaar
b1 aaaas
b1 aaaat
1aaabd
b10 aaabi
1aaabj
1aaabk

#1220000
0aaaaa

#1230000
1aaaaa
b10 aaaal
b10 aaaan
b0 aaaao
b1000 aaaap
b10 aaaaq
b100 aaaar
b10 aaaas
b0 aaaat
0aaabd
b0 aaabi
0aaabj
0aaabk

#1240000
0aaaaa

#1250000
1aaaaa
b10 aaaap

#1260000
0aaaaa

#1270000
1aaaaa
b1010 aaaam
b1000 aaaan
b10 aaaao
b11 aaaap
b1000 aaaas
b10 aaaat
b10 aaabi

#1280000
0aaaaa

#1290000
1aaaaa
b0 aaaan
b1010 aaaao
b100 aaaap
b11 aaaaq
b0 aaaas
b1010 aaaat
b1 aaabi

#1300000
0aaaaa

#1310000
1aaaaa
b101 aaaap
b0 aaaaq
b10 aaabi

#1320000
0aaaaa

#1330000
1aaaaa
b110 aaaap
b0 aaabi

#1340000
0aaaaa

#1350000
1aaaaa
b10 aaaam
b10 aaaao
b111 aaaap
b1 aaaaq
b0 aaaar
b10 aaaat
1aaabd
b10 aaabi
1aaabj
1aaabk

#1360000
0aaaaa

#1370000
1aaaaa
b0 aaaam
b0 aaaao
b1000 aaaap
b0 aaaaq
b100 aaaar
b0 aaaat
0aaabd
b0 aaabi
0aaabj
0aaabk

#1380000
0aaaaa

#1390000
1aaaaa
b1 aaaam
b11111111 aaaan
b10 aaaao
b1001 aaaap
b11111111 aaaas
b10 aaaat
1aaabd
b11 aaabi
1aaabj

#1400000
0aaaaa

#1410000
1aaaaa
b1 aaaae
1aaaah
b1 aaaal
b0 aaaam
b0 aaaan
b0 aaaao
b1010 aaaap
b0 aaaas
b0 aaaat
0aaabd
b0 aaabi
0aaabj

#1420000
0aaaaa

#1430000
1aaaaa
b0 aaaae
b1 aaaaf
b1 aaaag
0aaaah
b0 aaaal
b1011 aaaap
b1 aaaay
b1 aaabc
b1 aaabh

#1440000
0aaaaa

#1450000
1aaaaa
b10 aaaap

#1460000
0aaaaa

#1470000
1aaaaa
b11 aaaap
b10 aaabi

#1480000
0aaaaa

#1490000
1aaaaa
b1 aaaam
b1 aaaan
b100 aaaap
b1 aaaas
b1 aaabi

#1500000
0aaaaa

#1510000
1aaaaa
b0 aaaan
b1 aaaao
b101 aaaap
b0 aaaas
b1 aaaat
b10 aaabi

#1520000
0aaaaa

#1530000
1aaaaa
b10 aaaam
b1 aaaan
b110 aaaap
b1 aaaas
b0 aaabi

#1540000
0aaaaa

#1550000
1aaaaa
b0 aaaam
b0 aaaan
b0 aaaao
b111 aaaap
b0 aaaar
b0 aaaas
b0 aaaat
1aaabd
b10 aaabi
1aaabj
1aaabk

#1560000
0aaaaa

#1570000
1aaaaa
b1 aaaam
b1 aaaan
b1000 aaaap
b100 aaaar
b1 aaaas
0aaabd
b0 aaabi
0aaabj
0aaabk

#1580000
0aaaaa

#1590000
1aaaaa
b10 aaaap

#1600000
0aaaaa

#1610000
1aaaaa
b0 aaaan
b1 aaaao
b11 aaaap
b0 aaaas
b1 aaaat
b10 aaabi

#1620000
0aaaaa

#1630000
1aaaaa
b10 aaaam
b1 aaaan
b100 aaaap
b1 aaaas
b1 aaabi

#1640000
0aaaaa

#1650000
1aaaaa
b0 aaaan
b10 aaaao
b101 aaaap
b0 aaaas
b10 aaaat
b10 aaabi

#1660000
0aaaaa

#1670000
1aaaaa
b100 aaaam
b10 aaaan
b110 aaaap
b10 aaaas
b0 aaabi

#1680000
0aaaaa

#1690000
1aaaaa
b0 aaaam
b0 aaaan
b0 aaaao
b111 aaaap
b1 aaaar
b0 aaaas
b0 aaaat
1aaabd
b10 aaabi
1aaabj
1aaabk

#1700000
0aaaaa

#1710000
1aaaaa
b10 aaaam
b10 aaaan
b1000 aaaap
b100 aaaar
b10 aaaas
0aaabd
b0 aaabi
0aaabj
0aaabk

#1720000
0aaaaa

#1730000
1aaaaa
b10 aaaap

#1740000
0aaaaa

#1750000
1aaaaa
b0 aaaan
b10 aaaao
b11 aaaap
b0 aaaas
b10 aaaat
b10 aaabi

#1760000
0aaaaa

#1770000
1aaaaa
b11 aaaam
b1 aaaan
b100 aaaap
b1 aaaaq
b1 aaaas
b1 aaabi

#1780000
0aaaaa

#1790000
1aaaaa
b0 aaaan
b11 aaaao
b101 aaaap
b0 aaaaq
b0 aaaas
b11 aaaat
b10 aaabi

#1800000
0aaaaa

#1810000
1aaaaa
b110 aaaap
b1 aaaaq
b0 aaabi

#1820000
0aaaaa

#1830000
1aaaaa
b0 aaaam
b0 aaaao
b111 aaaap
b0 aaaar
b0 aaaat
1aaabd
b10 aaabi
1aaabj
1aaabk

#1840000
0aaaaa

#1850000
1aaaaa
b1000 aaaap
b100 aaaar
0aaabd
b0 aaabi
0aaabj
0aaabk

#1860000
0aaaaa

#1870000
1aaaaa
b10 aaaap

#1880000
0aaaaa

#1890000
1aaaaa
b100 aaaam
b100 aaaan
b11 aaaap
b100 aaaas
b10 aaabi

#1900000
0aaaaa

#1910000
1aaaaa
b101 aaaam
b1 aaaan
b100 aaaao
b100 aaaap
b1 aaaas
b100 aaaat
b1 aaabi

#1920000
0aaaaa

#1930000
1aaaaa
b0 aaaan
b101 aaaao
b101 aaaap
b0 aaaaq
b0 aaaas
b101 aaaat
b10 aaabi

#1940000
0aaaaa

#1950000
1aaaaa
b110 aaaam
b1 aaaan
b110 aaaap
b1 aaaaq
b1 aaaas
b0 aaabi

#1960000
0aaaaa

#1970000
1aaaaa
b1 aaaam
b0 aaaao
b111 aaaap
b1 aaaar
b0 aaaat
1aaabd
b10 aaabi
1aaabj
1aaabk

#1980000
0aaaaa

#1990000
1aaaaa
b1 aaaal
b1000 aaaap
b100 aaaar
0aaabd
b0 aaabi
0aaabj
0aaabk

#2000000
0aaaaa

#2010000
1aaaaa
b10 aaaap

#2020000
0aaaaa

#2030000
1aaaaa
b101 aaaam
b100 aaaan
b1 aaaao
b11 aaaap
b100 aaaas
b1 aaaat
b10 aaabi

#2040000
0aaaaa

#2050000
1aaaaa
b110 aaaam
b1 aaaan
b101 aaaao
b100 aaaap
b1 aaaas
b101 aaaat
b1 aaabi

#2060000
0aaaaa

#2070000
1aaaaa
b0 aaaan
b110 aaaao
b101 aaaap
b0 aaaaq
b0 aaaas
b110 aaaat
b10 aaabi

#2080000
0aaaaa

#2090000
1aaaaa
b1000 aaaam
b10 aaaan
b110 aaaap
b1 aaaaq
b10 aaaas
b0 aaabi

#2100000
0aaaaa

#2110000
1aaaaa
b1 aaaam
b0 aaaan
b1 aaaao
b111 aaaap
b0 aaaaq
b1 aaaar
b0 aaaas
b1 aaaat
1aaabd
b10 aaabi
1aaabj
1aaabk

#2120000
0aaaaa

#2130000
1aaaaa
b10 aaaam
b10 aaaan
b0 aaaao
b1000 aaaap
b1 aaaaq
b100 aaaar
b10 aaaas
b0 aaaat
0aaabd
b0 aaabi
0aaabj
0aaabk

#2140000
0aaaaa

#2150000
1aaaaa
b10 aaaap

#2160000
0aaaaa

#2170000
1aaaaa
b110 aaaam
b100 aaaan
b10 aaaao
b11 aaaap
b100 aaaas
b10 aaaat
b10 aaabi

#2180000
0aaaaa

#2190000
1aaaaa
b111 aaaam
b1 aaaan
b110 aaaao
b100 aaaap
b10 aaaaq
b1 aaaas
b110 aaaat
b1 aaabi

#2200000
0aaaaa

#2210000
1aaaaa
b0 aaaan
b111 aaaao
b101 aaaap
b0 aaaaq
b0 aaaas
b111 aaaat
b10 aaabi

#2220000
0aaaaa

#2230000
1aaaaa
b110 aaaap
b10 aaaaq
b0 aaabi

#2240000
0aaaaa

#2250000
1aaaaa
b1 aaaam
b1 aaaao
b111 aaaap
b0 aaaaq
b1 aaaar
b1 aaaat
1aaabd
b10 aaabi
1aaabj
1aaabk

#2260000
0aaaaa

#2270000
1aaaaa
b0 aaaam
b0 aaaao
b1000 aaaap
b10 aaaaq
b100 aaaar
b0 aaaat
0aaabd
b0 aaabi
0aaabj
0aaabk

#2280000
0aaaaa

#2290000
1aaaaa
b10 aaaap

#2300000
0aaaaa

#2310000
1aaaaa
b1000 aaaam
b1000 aaaan
b11 aaaap
b1000 aaaas
b10 aaabi

#2320000
0aaaaa

#2330000
1aaaaa
b1001 aaaam
b1 aaaan
b1000 aaaao
b100 aaaap
b1 aaaas
b1000 aaaat
b1 aaabi

#2340000
0aaaaa

#2350000
1aaaaa
b0 aaaan
b1001 aaaao
b101 aaaap
b0 aaaaq
b0 aaaas
b1001 aaaat
b10 aaabi

#2360000
0aaaaa

#2370000
1aaaaa
b1010 aaaam
b1 aaaan
b110 aaaap
b10 aaaaq
b1 aaaas
b0 aaabi

#2380000
0aaaaa

#2390000
1aaaaa
b1 aaaam
b0 aaaan
b1 aaaao
b111 aaaap
b1 aaaaq
b0 aaaar
b0 aaaas
b1 aaaat
1aaabd
b10 aaabi
1aaabj
1aaabk

#2400000
0aaaaa

#2410000
1aaaaa
b1 aaaan
b0 aaaao
b1000 aaaap
b10 aaaaq
b100 aaaar
b1 aaaas
b0 aaaat
0aaabd
b0 aaabi
0aaabj
0aaabk

#2420000
0aaaaa

#2430000
1aaaaa
b10 aaaap

#2440000
0aaaaa

#2450000
1aaaaa
b1001 aaaam
b1000 aaaan
b1 aaaao
b11 aaaap
b1000 aaaas
b1 aaaat
b10 aaabi

#2460000
0aaaaa

#2470000
1aaaaa
b1010 aaaam
b1 aaaan
b1001 aaaao
b100 aaaap
b1 aaaas
b1001 aaaat
b1 aaabi

#2480000
0aaaaa

#2490000
1aaaaa
b0 aaaan
b1010 aaaao
b101 aaaap
b0 aaaaq
b0 aaaas
b1010 aaaat
b10 aaabi

#2500000
0aaaaa

#2510000
1aaaaa
b1100 aaaam
b10 aaaan
b110 aaaap
b10 aaaaq
b10 aaaas
b0 aaabi

#2520000
0aaaaa

#2530000
1aaaaa
b10 aaaam
b1 aaaan
b1 aaaao
b111 aaaap
b1 aaaaq
b1 aaaar
b1 aaaas
b1 aaaat
1aaabd
b10 aaabi
1aaabj
1aaabk

#2540000
0aaaaa

#2550000
1aaaaa
b10 aaaal
b10 aaaan
b0 aaaao
b1000 aaaap
b10 aaaaq
b100 aaaar
b10 aaaas
b0 aaaat
0aaabd
b0 aaabi
0aaabj
0aaabk

#2560000
0aaaaa

#2570000
1aaaaa
b10 aaaap

#2580000
0aaaaa

#2590000
1aaaaa
b1010 aaaam
b1000 aaaan
b10 aaaao
b11 aaaap
b1000 aaaas
b10 aaaat
b10 aaabi

#2600000
0aaaaa

#2610000
1aaaaa
b1011 aaaam
b1 aaaan
b1010 aaaao
b100 aaaap
b11 aaaaq
b1 aaaas
b1010 aaaat
b1 aaabi

#2620000
0aaaaa

#2630000
1aaaaa
b0 aaaan
b1011 aaaao
b101 aaaap
b0 aaaaq
b0 aaaas
b1011 aaaat
b10 aaabi

#2640000
0aaaaa

#2650000
1aaaaa
b110 aaaap
b0 aaabi

#2660000
0aaaaa

#2670000
1aaaaa
b10 aaaam
b10 aaaao
b111 aaaap
b1 aaaaq
b0 aaaar
b10 aaaat
1aaabd
b10 aaabi
1aaabj
1aaabk

#2680000
0aaaaa

#2690000
1aaaaa
b0 aaaam
b0 aaaao
b1000 aaaap
b0 aaaaq
b100 aaaar
b0 aaaat
0aaabd
b0 aaabi
0aaabj
0aaabk

#2700000
0aaaaa

#2710000
1aaaaa
b1 aaaam
b11111111 aaaan
b10 aaaao
b1001 aaaap
b11111111 aaaas
b10 aaaat
1aaabd
b11 aaabi
1aaabj

#2720000
0aaaaa

#2730000
1aaaaa
b10 aaaae
1aaaai
b1 aaaal
b0 aaaam
b0 aaaan
b0 aaaao
b1010 aaaap
b0 aaaas
b0 aaaat
0aaabd
b0 aaabi
0aaabj

#2740000
0aaaaa

#2750000
1aaaaa
b10 aaaad
b0 aaaae
b10 aaaaf
b10 aaaag
0aaaai
b0 aaaal
b1011 aaaap
b1 aaaax
b1 aaabb
b1 aaabg

#2760000
0aaaaa

#2770000
1aaaaa
b10 aaaap

#2780000
0aaaaa

#2790000
1aaaaa
b11 aaaap
b10 aaabi

#2800000
0aaaaa

#2810000
1aaaaa
b100 aaaap
b1 aaabi

#2820000
0aaaaa

#2830000
1aaaaa
b100 aaaam
b100 aaaan
b101 aaaap
b1 aaaaq
b100 aaaas
b10 aaabi

#2840000
0aaaaa

#2850000
1aaaaa
b101 aaaam
b1 aaaan
b100 aaaao
b110 aaaap
b0 aaaaq
b1 aaaas
b100 aaaat
b0 aaabi

#2860000
0aaaaa

#2870000
1aaaaa
b0 aaaam
b0 aaaan
b0 aaaao
b111 aaaap
b0 aaaar
b0 aaaas
b0 aaaat
1aaabd
b10 aaabi
1aaabj
1aaabk

#2880000
0aaaaa

#2890000
1aaaaa
b1 aaaam
b1 aaaan
b1000 aaaap
b100 aaaar
b1 aaaas
0aaabd
b0 aaabi
0aaabj
0aaabk

#2900000
0aaaaa

#2910000
1aaaaa
b10 aaaap

#2920000
0aaaaa

#2930000
1aaaaa
b0 aaaan
b1 aaaao
b11 aaaap
b0 aaaas
b1 aaaat
b10 aaabi

#2940000
0aaaaa

#2950000
1aaaaa
b100 aaaap
b1 aaabi

#2960000
0aaaaa

#2970000
1aaaaa
b101 aaaam
b100 aaaan
b101 aaaap
b1 aaaaq
b100 aaaas
b10 aaabi

#2980000
0aaaaa

#2990000
1aaaaa
b111 aaaam
b10 aaaan
b101 aaaao
b110 aaaap
b0 aaaaq
b10 aaaas
b101 aaaat
b0 aaabi

#3000000
0aaaaa

#3010000
1aaaaa
b1 aaaam
b1 aaaan
b0 aaaao
b111 aaaap
b1 aaaaq
b1 aaaar
b1 aaaas
b0 aaaat
1aaabd
b10 aaabi
1aaabj
1aaabk

#3020000
0aaaaa

#3030000
1aaaaa
b1 aaaal
b10 aaaam
b10 aaaan
b1000 aaaap
b0 aaaaq
b100 aaaar
b10 aaaas
0aaabd
b0 aaabi
0aaabj
0aaabk

#3040000
0aaaaa

#3050000
1aaaaa
b10 aaaap

#3060000
0aaaaa

#3070000
1aaaaa
b0 aaaan
b10 aaaao
b11 aaaap
b0 aaaas
b10 aaaat
b10 aaabi

#3080000
0aaaaa

#3090000
1aaaaa
b100 aaaap
b1 aaaaq
b1 aaabi

#3100000
0aaaaa

#3110000
1aaaaa
b110 aaaam
b100 aaaan
b101 aaaap
b100 aaaas
b10 aaabi

#3120000
0aaaaa

#3130000
1aaaaa
b0 aaaan
b110 aaaao
b110 aaaap
b0 aaaas
b110 aaaat
b0 aaabi

#3140000
0aaaaa

#3150000
1aaaaa
b1 aaaam
b1 aaaao
b111 aaaap
b0 aaaaq
b0 aaaar
b1 aaaat
1aaabd
b10 aaabi
1aaabj
1aaabk

#3160000
0aaaaa

#3170000
1aaaaa
b0 aaaam
b0 aaaao
b1000 aaaap
b1 aaaaq
b100 aaaar
b0 aaaat
0aaabd
b0 aaabi
0aaabj
0aaabk

#3180000
0aaaaa

#3190000
1aaaaa
b10 aaaap

#3200000
0aaaaa

#3210000
1aaaaa
b100 aaaam
b100 aaaan
b11 aaaap
b100 aaaas
b10 aaabi

#3220000
0aaaaa

#3230000
1aaaaa
b0 aaaan
b100 aaaao
b100 aaaap
b0 aaaas
b100 aaaat
b1 aaabi

#3240000
0aaaaa

#3250000
1aaaaa
b1000 aaaam
b100 aaaan
b101 aaaap
b100 aaaas
b10 aaabi

#3260000
0aaaaa

#3270000
1aaaaa
b1001 aaaam
b1 aaaan
b1000 aaaao
b110 aaaap
b1 aaaas
b1000 aaaat
b0 aaabi

#3280000
0aaaaa

#3290000
1aaaaa
b10 aaaam
b1 aaaao
b111 aaaap
b1 aaaar
b1 aaaat
1aaabd
b10 aaabi
1aaabj
1aaabk

#3300000
0aaaaa

#3310000
1aaaaa
b10 aaaal
b1 aaaam
b0 aaaao
b1000 aaaap
b100 aaaar
b0 aaaat
0aaabd
b0 aaabi
0aaabj
0aaabk

#3320000
0aaaaa

#3330000
1aaaaa
b10 aaaap

#3340000
0aaaaa

#3350000
1aaaaa
b101 aaaam
b100 aaaan
b1 aaaao
b11 aaaap
b100 aaaas
b1 aaaat
b10 aaabi

#3360000
0aaaaa

#3370000
1aaaaa
b0 aaaan
b101 aaaao
b100 aaaap
b0 aaaas
b101 aaaat
b1 aaabi

#3380000
0aaaaa

#3390000
1aaaaa
b1001 aaaam
b100 aaaan
b101 aaaap
b100 aaaas
b10 aaabi

#3400000
0aaaaa

#3410000
1aaaaa
b1011 aaaam
b10 aaaan
b1001 aaaao
b110 aaaap
b10 aaaas
b1001 aaaat
b0 aaabi

#3420000
0aaaaa

#3430000
1aaaaa
b11 aaaam
b1 aaaan
b10 aaaao
b111 aaaap
b1 aaaar
b1 aaaas
b10 aaaat
1aaabd
b10 aaabi
1aaabj
1aaabk

#3440000
0aaaaa

#3450000
1aaaaa
b11 aaaal
b10 aaaam
b10 aaaan
b0 aaaao
b1000 aaaap
b100 aaaar
b10 aaaas
b0 aaaat
0aaabd
b0 aaabi
0aaabj
0aaabk

#3460000
0aaaaa

#3470000
1aaaaa
b10 aaaap

#3480000
0aaaaa

#3490000
1aaaaa
b110 aaaam
b100 aaaan
b10 aaaao
b11 aaaap
b100 aaaas
b10 aaaat
b10 aaabi

#3500000
0aaaaa

#3510000
1aaaaa
b0 aaaan
b110 aaaao
b100 aaaap
b10 aaaaq
b0 aaaas
b110 aaaat
b1 aaabi

#3520000
0aaaaa

#3530000
1aaaaa
b1010 aaaam
b100 aaaan
b101 aaaap
b1 aaaaq
b100 aaaas
b10 aaabi

#3540000
0aaaaa

#3550000
1aaaaa
b0 aaaan
b1010 aaaao
b110 aaaap
b10 aaaaq
b0 aaaas
b1010 aaaat
b0 aaabi

#3560000
0aaaaa

#3570000
1aaaaa
b100 aaaam
b1 aaaan
b11 aaaao
b111 aaaap
b1 aaaaq
b1 aaaar
b1 aaaas
b11 aaaat
1aaabd
b10 aaabi
1aaabj
1aaabk

#3580000
0aaaaa

#3590000
1aaaaa
b100 aaaal
b0 aaaam
b0 aaaan
b0 aaaao
b1000 aaaap
b10 aaaaq
b100 aaaar
b0 aaaas
b0 aaaat
0aaabd
b0 aaabi
0aaabj
0aaabk

#3600000
0aaaaa

#3610000
1aaaaa
b10 aaaap

#3620000
0aaaaa

#3630000
1aaaaa
b1000 aaaam
b1000 aaaan
b11 aaaap
b1000 aaaas
b10 aaabi

#3640000
0aaaaa

#3650000
1aaaaa
b0 aaaan
b1000 aaaao
b100 aaaap
b0 aaaas
b1000 aaaat
b1 aaabi

#3660000
0aaaaa

#3670000
1aaaaa
b1100 aaaam
b100 aaaan
b101 aaaap
b1 aaaaq
b100 aaaas
b10 aaabi

#3680000
0aaaaa

#3690000
1aaaaa
b1101 aaaam
b1 aaaan
b1100 aaaao
b110 aaaap
b10 aaaaq
b1 aaaas
b1100 aaaat
b0 aaabi

#3700000
0aaaaa

#3710000
1aaaaa
b100 aaaam
b0 aaaan
b100 aaaao
b111 aaaap
b0 aaaaq
b0 aaaar
b0 aaaas
b100 aaaat
1aaabd
b10 aaabi
1aaabj
1aaabk

#3720000
0aaaaa

#3730000
1aaaaa
b1 aaaam
b1 aaaan
b0 aaaao
b1000 aaaap
b10 aaaaq
b100 aaaar
b1 aaaas
b0 aaaat
0aaabd
b0 aaabi
0aaabj
0aaabk

#3740000
0aaaaa

#3750000
1aaaaa
b10 aaaap

#3760000
0aaaaa

#3770000
1aaaaa
b1001 aaaam
b1000 aaaan
b1 aaaao
b11 aaaap
b1000 aaaas
b1 aaaat
b10 aaabi

#3780000
0aaaaa

#3790000
1aaaaa
b0 aaaan
b1001 aaaao
b100 aaaap
b0 aaaas
b1001 aaaat
b1 aaabi

#3800000
0aaaaa

